Interval statistics
…
# load chrom sizes
genome <- read_genome(valr_example('hg19.chrom.sizes.gz'))

# create 1bp intervals representing transcription start sites
tss <-
  mutate(genes,
         .start = ifelse(strand == '+', start, end),
         .end = .start + 1) %>%
  select(chrom, start = .start, end = .end, name)

tss
#> # A tibble: 1,267 × 4
#>    chrom    start      end         name
#>    <chr>    <int>    <dbl>        <chr>
#> 1  chr22 16193009 16193010    NR_122113
#> 2  chr22 16157078 16157079    NR_133911
#> 3  chr22 16162065 16162066    NR_073459
#> 4  chr22 16162065 16162066    NR_073460
#> 5  chr22 16231289 16231290    NR_132385
#> 6  chr22 16287937 16287938 NM_001136213
#> 7  chr22 16274608 16274609    NR_046571
#> 8  chr22 16449804 16449805 NM_001005239
#> 9  chr22 17073700 17073701    NM_014406
#> 10 chr22 17082800 17082801    NR_001591
#> # ... with 1,257 more rows
…
We use the distance_stats() function to apply the bed_absdist() function to each group of data.

obs_stats <- distance_stats(rpts, tss, genome, 'name', 'obs')
obs_stats
#> # A tibble: 2,106 × 4
#>          name    stat             value  type
#>         <chr>   <chr>            <list> <chr>
#> 1        (A)n reldist <tibble [27 × 1]>   obs
#> 2  (AAAAACA)n reldist  <tibble [1 × 1]>   obs
#> 3    (AAAAC)n reldist  <tibble [6 × 1]>   obs
#> 4    (AAAAG)n reldist  <tibble [2 × 1]>   obs
#> 5    (AAAAT)n reldist  <tibble [3 × 1]>   obs
#> 6   (AAAATA)n reldist  <tibble [1 × 1]>   obs
#> 7  (AAAATAA)n reldist  <tibble [1 × 1]>   obs
#> 8     (AAAC)n reldist  <tibble [2 × 1]>   obs
#> 9    (AAACA)n reldist  <tibble [1 × 1]>   obs
#> 10  (AAACAA)n reldist  <tibble [1 × 1]>   obs
#> # ... with 2,096 more rows
…
adding unique surrogate row numbers for each group

using tidyr::spread() to create two new obs and shuf columns

removing rows with NA values.

res <- bind_rows(obs_stats, shf_stats) %>%
  tidyr::unnest(value) %>% 
  group_by(name, stat, type) %>%
  mutate(.id = row_number()) %>%
  tidyr::spread(type, .value) %>%
  na.omit()

res
#> Source: local data frame [16,759 x 5]
#> Groups: name, stat [1,912]
#> 
#>     name    stat   .id     obs     shuf
#>    <chr>   <chr> <int>   <dbl>    <dbl>
#> 1   (A)n absdist     1 5120782 12574522
#> 2   (A)n absdist     2  226476 11193462
#> 3   (A)n absdist     3   31241  7615016
#> 4   (A)n absdist     4    8931  7134364
#> 5   (A)n absdist     5   41316  4346336
#> 6   (A)n absdist     6   22519   263322
#> 7   (A)n absdist     7   15173    10857
#> 8   (A)n absdist     8   21985    10691
#> 9   (A)n absdist     9   13457    13619
#> 10  (A)n absdist    10  134007     2621
#> # ... with 16,749 more rows
…
First we’ll extract 5 kb regions upstream of the transcription start sites to represent the promoter regions for coding and non-coding genes.

# create intervals 5kb upstream of tss representing promoters
promoters <-
  bed_flank(genes, genome, left = 5000, strand = TRUE) %>%
  mutate(name = ifelse(grepl('NR_', name), 'non-coding', 'coding')) %>%
  select(chrom:strand)
  
# select coding and non-coding promoters
promoters_coding <- filter(promoters, name == 'coding')
promoters_ncoding <- filter(promoters, name == 'non-coding')

promoters_coding
#> # A tibble: 973 × 6
#>    chrom    start      end   name score strand
#>    <chr>    <dbl>    <dbl>  <chr> <chr>  <chr>
#> 1  chr22 16287937 16292937 coding     0      -
#> 2  chr22 16449804 16454804 coding     0      -
#> 3  chr22 17073700 17078700 coding     0      -
#> 4  chr22 17302589 17307589 coding     0      -
#> 5  chr22 17302589 17307589 coding     0      -
#> 6  chr22 17489112 17494112 coding     0      -
#> 7  chr22 17560848 17565848 coding     0      +
#> 8  chr22 17560848 17565848 coding     0      +
#> 9  chr22 17602213 17607213 coding     0      -
#> 10 chr22 17602257 17607257 coding     0      -
#> # ... with 963 more rows

promoters_ncoding
#> # A tibble: 294 × 6
#>    chrom    start      end       name score strand
#>    <chr>    <dbl>    <dbl>      <chr> <chr>  <chr>
#> 1  chr22 16152078 16157078 non-coding     0      +
#> 2  chr22 16157065 16162065 non-coding     0      +
#> 3  chr22 16157065 16162065 non-coding     0      +
#> 4  chr22 16193009 16198009 non-coding     0      -
#> 5  chr22 16231289 16236289 non-coding     0      -
#> 6  chr22 16269608 16274608 non-coding     0      +
#> 7  chr22 17077800 17082800 non-coding     0      +
#> 8  chr22 17156430 17161430 non-coding     0      -
#> 9  chr22 17229328 17234328 non-coding     0      -
#> 10 chr22 17303363 17308363 non-coding     0      +
#> # ... with 284 more rows
…
pvals <-
  bind_rows(pvals_ncoding, pvals_coding) %>% 
  tidyr::unnest() %>%
  select(-chrom)

# filter for repeat classes with at least 10 intervals
pvals <- filter(pvals, n_repeats > 10,
                obs_exp_ratio != 0)

# adjust pvalues 
pvals <- mutate(pvals, q.value = p.adjust(p.value))

pvals
#> # A tibble: 179 × 7
#>      name       type n_repeats     p.value obs_exp_ratio lower_tail
#>     <chr>      <chr>     <int>       <dbl>         <dbl>      <chr>
#> 1    (A)n non_coding        28 0.003529188     4.7150373      FALSE
#> 2   (AT)n non_coding        48 0.297946444     0.9168128      FALSE
#> 3   (CA)n non_coding        31 0.156135635     1.4195811      FALSE
#> 4   (GT)n non_coding        42 0.247258594     1.0477861      FALSE
#> 5    (T)n non_coding        61 0.404908066     0.7214265      FALSE
#> 6   (TG)n non_coding        40 0.062233679     2.2003507      FALSE
#> 7  A-rich non_coding        54 0.348067174     0.8149447      FALSE
#> 8     Alu non_coding        15 0.044563006     2.9338010      FALSE
#> 9   AluJb non_coding       271 0.022488504     1.7862626      FALSE
#> 10  AluJo non_coding       208 0.021566061     1.9041497      FALSE
#> # ... with 169 more rows, and 1 more variables: q.value <dbl>
…
