valr overview
…
library(valr)
library(dplyr)

snps <- read_bed(valr_example('hg19.snps147.chr22.bed.gz'), n_fields = 6)
genes <- read_bed(valr_example('genes.hg19.chr22.bed.gz'), n_fields = 6)

# find snps in intergenic regions
intergenic <- bed_subtract(snps, genes)
# distance from intergenic snps to nearest gene
nearby <- bed_closest(intergenic, genes)

nearby %>%
  select(starts_with('name'), .overlap, .dist) %>%
  filter(abs(.dist) < 1000)
#> # A tibble: 285 × 4
#>         name.x            name.y .overlap .dist
#>          <chr>             <chr>    <int> <int>
#>  1   rs2261631             P704P        0  -267
#>  2 rs570770556             POTEH        0  -912
#>  3 rs538163832             POTEH        0  -952
#>  4   rs9606135            TPTEP1        0  -421
#>  5  rs11912392 ANKRD62P1-PARP4P3        0   104
#>  6   rs8136454          BC038197        0   355
#>  7   rs5992556              XKR3        0  -455
#>  8 rs114101676              GAB4        0   473
#>  9  rs62236167             CECR7        0   261
#> 10   rs5747023             CECR1        0  -386
#> # ... with 275 more rows
…
# 1000 bp up and downstream
region_size <- 1000
# 50 bp windows
win_size <- 50

# add slop to the TSS, break into windows and add a group
x <- tss %>%
  bed_slop(genome, both = region_size) %>%
  bed_makewindows(genome, win_size)

x
#> # A tibble: 13,530 × 7
#>    chrom    start      end      name score strand .win_id
#>    <chr>    <dbl>    <dbl>     <chr> <chr>  <chr>   <dbl>
#>  1 chr22 16161065 16161115 LINC00516     3      +       1
#>  2 chr22 16161115 16161165 LINC00516     3      +       2
#>  3 chr22 16161165 16161215 LINC00516     3      +       3
#>  4 chr22 16161215 16161265 LINC00516     3      +       4
#>  5 chr22 16161265 16161315 LINC00516     3      +       5
#>  6 chr22 16161315 16161365 LINC00516     3      +       6
#>  7 chr22 16161365 16161415 LINC00516     3      +       7
#>  8 chr22 16161415 16161465 LINC00516     3      +       8
#>  9 chr22 16161465 16161515 LINC00516     3      +       9
#> 10 chr22 16161515 16161565 LINC00516     3      +      10
#> # ... with 13,520 more rows

Now we use the .win_id group with bed_map() to caluclate a sum by mapping y signals onto the intervals in x. These data are regrouped by .win_id and a summary with mean and sd values is calculated.

# map signals to TSS regions and calculate summary statistics.
res <- bed_map(x, y, win_sum = sum(value, na.rm = TRUE)) %>%
  group_by(.win_id) %>%
  summarize(win_mean = mean(win_sum, na.rm = TRUE),
            win_sd = sd(win_sum, na.rm = TRUE))

res
#> # A tibble: 41 × 3
#>    .win_id win_mean    win_sd
#>      <dbl>    <dbl>     <dbl>
#>  1       1 100.8974  85.83423
#>  2       2 110.6829  81.13521
#>  3       3 122.9070  99.09635
#>  4       4 116.2800  96.30098
#>  5       5 116.3500 102.33773
#>  6       6 124.9048  95.08887
#>  7       7 122.9437  94.39792
#>  8       8 127.5946  91.47407
#>  9       9 130.2051  95.71309
#> 10      10 130.1220  88.82809
#> # ... with 31 more rows
…
shuffle_intervals <- function(n, .data, genome) {
  replicate(n, bed_shuffle(.data, genome, seed = 1010486), simplify = FALSE) %>%
    bind_rows(.id = 'rep') %>%
    group_by(rep) %>% nest()
}

shuffled <- shuffle_intervals(n = 100, repeats, genome) %>%
  mutate(jaccard = data %>%
           map(bed_jaccard, repeats) %>%
           map_dbl("jaccard"))
  
shuffled
#> # A tibble: 100 × 3
#>      rep                  data      jaccard
#>    <chr>                <list>        <dbl>
#>  1     1 <tibble [10,000 × 6]> 0.0004355887
#>  2     2 <tibble [10,000 × 6]> 0.0004355887
#>  3     3 <tibble [10,000 × 6]> 0.0004355887
#>  4     4 <tibble [10,000 × 6]> 0.0004355887
#>  5     5 <tibble [10,000 × 6]> 0.0004355887
#>  6     6 <tibble [10,000 × 6]> 0.0004355887
#>  7     7 <tibble [10,000 × 6]> 0.0004355887
#>  8     8 <tibble [10,000 × 6]> 0.0004355887
#>  9     9 <tibble [10,000 × 6]> 0.0004355887
#> 10    10 <tibble [10,000 × 6]> 0.0004355887
#> # ... with 90 more rows
…
